<?xml version="1.0" encoding="utf-8"?>
<!-- Generator: Adobe Illustrator 16.0.3, SVG Export Plug-In . SVG Version: 6.00 Build 0)  -->
<!DOCTYPE svg PUBLIC "-//W3C//DTD SVG 1.1//EN" "http://www.w3.org/Graphics/SVG/1.1/DTD/svg11.dtd">
<svg version="1.1" id="Capa_1" xmlns="http://www.w3.org/2000/svg" xmlns:xlink="http://www.w3.org/1999/xlink" x="0px" y="0px"
	 width="48px" height="48px" viewBox="0 0 48 48" enable-background="new 0 0 48 48" xml:space="preserve">
<path fill="#FBBF10" d="M6,34.5V42h7.5l22.13-22.13l-7.5-7.5L6,34.5z M41.41,14.09c0.779-0.78,0.779-2.05,0-2.83l-4.67-4.67
	c-0.78-0.78-2.051-0.78-2.83,0l-3.66,3.66l7.5,7.5L41.41,14.09z"/>
</svg>
