<?xml version="1.0" encoding="utf-8"?>
<!-- Generator: Adobe Illustrator 16.0.0, SVG Export Plug-In . SVG Version: 6.00 Build 0)  -->
<!DOCTYPE svg PUBLIC "-//W3C//DTD SVG 1.1//EN" "http://www.w3.org/Graphics/SVG/1.1/DTD/svg11.dtd">
<svg version="1.1" id="Layer_1" xmlns="http://www.w3.org/2000/svg" xmlns:xlink="http://www.w3.org/1999/xlink" x="0px" y="0px"
	 width="331px" height="195.945px" viewBox="0 0 331 195.945" enable-background="new 0 0 331 195.945" xml:space="preserve">
<polygon fill="#F4A320" points="228.197,23.059 323.899,12.174 232.055,52.496 "/>
<polygon fill="#FED018" points="228.197,23.059 323.899,12.174 207.938,3.906 "/>
<polygon fill="#CD8A2C" points="237.461,31.871 323.899,12.173 232.055,52.496 "/>
<polygon fill="#FED018" points="237.461,31.871 323.899,12.173 266.839,59.553 "/>
<g>
	<path fill="#5D5E5E" d="M228.954,47.872c0.226,0.366,0.395,0.764,0.506,1.196c0.112,0.432,0.165,0.88,0.16,1.345
		c-0.003,0.366-0.042,0.725-0.116,1.075c-0.074,0.35-0.189,0.687-0.345,1.009c-0.155,0.323-0.346,0.603-0.571,0.842
		c-0.226,0.239-0.506,0.428-0.84,0.569c-0.334,0.14-0.7,0.208-1.097,0.204c-0.397-0.003-0.761-0.079-1.093-0.226
		c-0.331-0.147-0.607-0.342-0.829-0.585c-0.22-0.245-0.405-0.528-0.554-0.853c-0.15-0.327-0.258-0.664-0.324-1.018
		c-0.066-0.35-0.098-0.71-0.095-1.076c0.005-0.465,0.068-0.913,0.188-1.342c0.12-0.43,0.297-0.824,0.53-1.186
		c0.232-0.36,0.542-0.648,0.929-0.86c0.387-0.213,0.828-0.318,1.323-0.312c0.494,0.004,0.933,0.117,1.316,0.337
		C228.425,47.213,228.729,47.506,228.954,47.872z M225.776,49.054c-0.082,0.237-0.141,0.466-0.176,0.685
		c-0.036,0.219-0.055,0.428-0.057,0.623c-0.002,0.195,0.013,0.404,0.043,0.627c0.032,0.223,0.086,0.456,0.163,0.698
		c0.077,0.243,0.196,0.443,0.356,0.601c0.161,0.157,0.348,0.236,0.561,0.239c0.214,0.002,0.403-0.074,0.566-0.228
		c0.164-0.154,0.287-0.352,0.368-0.592c0.082-0.24,0.141-0.472,0.177-0.695c0.036-0.223,0.055-0.431,0.057-0.627
		c0.001-0.195-0.013-0.403-0.044-0.623c-0.031-0.221-0.085-0.451-0.163-0.689s-0.195-0.437-0.356-0.595
		c-0.16-0.157-0.347-0.237-0.561-0.239c-0.214-0.001-0.403,0.073-0.566,0.228C225.98,48.622,225.858,48.817,225.776,49.054z"/>
	<path fill="#5D5E5E" d="M221.051,53.787l-1.796-0.011l0.045-6.909l2.786,0.018l-0.011,1.52l-0.989-0.005L221.051,53.787z"/>
	<path fill="#5D5E5E" d="M214.779,53.764l-1.795,0.006l-0.019-6.908l2.785-0.008l0.004,1.521l-0.989,0.001L214.779,53.764z"/>
	<path fill="#5D5E5E" d="M208.522,53.816l-1.795,0.033l-0.126-6.908l2.785-0.051l0.028,1.521l-0.99,0.019L208.522,53.816z"/>
	<path fill="#5D5E5E" d="M203.589,47.934c0.244,0.354,0.433,0.745,0.566,1.17c0.133,0.425,0.21,0.87,0.228,1.333
		c0.016,0.366-0.005,0.727-0.062,1.081c-0.056,0.353-0.153,0.695-0.293,1.025c-0.139,0.329-0.315,0.619-0.528,0.869
		c-0.213,0.25-0.483,0.453-0.81,0.611c-0.327,0.155-0.688,0.243-1.085,0.259s-0.764-0.041-1.103-0.171
		c-0.338-0.13-0.625-0.311-0.857-0.542c-0.232-0.232-0.432-0.506-0.598-0.825c-0.166-0.316-0.29-0.65-0.375-0.998
		c-0.084-0.347-0.134-0.705-0.149-1.07c-0.019-0.463,0.021-0.914,0.12-1.349c0.099-0.434,0.255-0.838,0.469-1.211
		s0.509-0.675,0.885-0.907c0.375-0.232,0.81-0.359,1.304-0.379c0.495-0.02,0.939,0.071,1.332,0.271
		C203.027,47.303,203.347,47.58,203.589,47.934z M200.476,49.276c-0.07,0.242-0.116,0.472-0.141,0.694
		c-0.025,0.22-0.033,0.429-0.025,0.625c0.007,0.195,0.033,0.404,0.076,0.624c0.042,0.222,0.108,0.452,0.197,0.689
		c0.089,0.237,0.219,0.433,0.386,0.581c0.168,0.148,0.359,0.219,0.573,0.21c0.214-0.008,0.398-0.093,0.554-0.257
		c0.155-0.161,0.268-0.364,0.337-0.609c0.07-0.245,0.117-0.479,0.141-0.702c0.025-0.225,0.033-0.435,0.025-0.63
		c-0.008-0.195-0.033-0.401-0.076-0.62c-0.042-0.219-0.108-0.445-0.197-0.68c-0.089-0.234-0.217-0.427-0.386-0.576
		c-0.168-0.15-0.359-0.219-0.572-0.21c-0.214,0.008-0.398,0.095-0.554,0.255C200.658,48.833,200.545,49.035,200.476,49.276z"/>
	<path fill="#5D5E5E" d="M196.044,54.302l-1.792,0.126l-0.484-6.891l2.779-0.196l0.106,1.517l-0.987,0.069L196.044,54.302z"/>
	<path fill="#5D5E5E" d="M190.755,48.704c0.267,0.337,0.481,0.713,0.643,1.13c0.161,0.416,0.266,0.854,0.316,1.315
		c0.039,0.364,0.042,0.725,0.01,1.082c-0.032,0.357-0.106,0.705-0.224,1.042c-0.117,0.337-0.273,0.64-0.47,0.903
		c-0.195,0.264-0.452,0.486-0.767,0.664c-0.316,0.178-0.671,0.289-1.066,0.331c-0.394,0.042-0.765,0.01-1.111-0.096
		c-0.347-0.107-0.644-0.269-0.892-0.486c-0.247-0.215-0.464-0.477-0.65-0.783c-0.187-0.305-0.333-0.629-0.441-0.971
		c-0.108-0.34-0.181-0.693-0.22-1.058c-0.05-0.463-0.04-0.913,0.029-1.354c0.069-0.44,0.198-0.854,0.387-1.24
		c0.188-0.387,0.462-0.708,0.822-0.963c0.359-0.257,0.786-0.413,1.278-0.466c0.491-0.052,0.94,0.008,1.346,0.184
		C190.153,48.112,190.489,48.368,190.755,48.704z M187.738,50.25c-0.054,0.246-0.085,0.48-0.095,0.702
		c-0.01,0.222-0.004,0.431,0.017,0.625c0.021,0.195,0.06,0.4,0.117,0.619c0.058,0.218,0.139,0.442,0.244,0.674
		c0.104,0.23,0.246,0.416,0.423,0.553c0.178,0.138,0.374,0.195,0.586,0.172c0.212-0.023,0.391-0.12,0.535-0.292
		c0.145-0.171,0.243-0.383,0.297-0.631c0.053-0.248,0.084-0.485,0.094-0.709c0.009-0.226,0.004-0.435-0.018-0.63
		c-0.021-0.195-0.06-0.398-0.117-0.613c-0.056-0.216-0.138-0.438-0.242-0.667c-0.104-0.228-0.245-0.41-0.423-0.548
		c-0.177-0.138-0.373-0.195-0.585-0.172c-0.212,0.023-0.391,0.122-0.536,0.294C187.891,49.796,187.792,50.005,187.738,50.25z"/>
	<path fill="#5D5E5E" d="M184.316,49.438c0.281,0.325,0.512,0.691,0.691,1.099s0.304,0.842,0.374,1.301
		c0.055,0.363,0.075,0.722,0.058,1.081c-0.016,0.357-0.075,0.708-0.179,1.051c-0.102,0.343-0.245,0.65-0.429,0.923
		c-0.184,0.272-0.43,0.504-0.737,0.696c-0.307,0.192-0.658,0.318-1.05,0.377c-0.393,0.061-0.764,0.044-1.115-0.048
		c-0.35-0.092-0.654-0.24-0.912-0.445c-0.257-0.205-0.485-0.456-0.684-0.753c-0.2-0.298-0.361-0.614-0.483-0.95
		c-0.122-0.336-0.211-0.687-0.267-1.048c-0.07-0.459-0.08-0.91-0.029-1.354c0.05-0.443,0.161-0.862,0.333-1.256
		s0.432-0.728,0.779-0.999c0.349-0.273,0.767-0.446,1.256-0.52c0.489-0.075,0.94-0.034,1.354,0.122
		C183.688,48.874,184.035,49.114,184.316,49.438z M181.369,51.114c-0.043,0.249-0.064,0.483-0.064,0.707
		c0,0.222,0.014,0.429,0.043,0.623c0.03,0.193,0.078,0.397,0.144,0.613c0.067,0.216,0.158,0.437,0.273,0.663
		s0.264,0.404,0.447,0.534c0.184,0.13,0.382,0.178,0.593,0.147c0.211-0.033,0.385-0.139,0.522-0.316
		c0.136-0.178,0.226-0.393,0.269-0.643c0.042-0.25,0.063-0.487,0.063-0.713c-0.001-0.226-0.016-0.435-0.045-0.628
		c-0.029-0.194-0.077-0.397-0.144-0.609s-0.157-0.43-0.271-0.653c-0.114-0.225-0.263-0.401-0.447-0.531
		c-0.184-0.13-0.381-0.178-0.593-0.146c-0.21,0.032-0.385,0.137-0.522,0.315C181.501,50.653,181.412,50.868,181.369,51.114z"/>
	<path fill="#5D5E5E" d="M174.702,51.097c0.305,0.302,0.562,0.649,0.772,1.042c0.21,0.394,0.367,0.816,0.472,1.269
		c0.083,0.357,0.129,0.715,0.14,1.074c0.011,0.357-0.022,0.712-0.097,1.062c-0.077,0.349-0.195,0.667-0.358,0.952
		c-0.163,0.286-0.391,0.536-0.683,0.75c-0.292,0.215-0.631,0.366-1.018,0.457c-0.387,0.089-0.759,0.102-1.116,0.037
		c-0.356-0.065-0.671-0.189-0.942-0.375c-0.271-0.184-0.518-0.417-0.74-0.698c-0.222-0.281-0.406-0.584-0.554-0.911
		c-0.148-0.326-0.263-0.668-0.345-1.025c-0.105-0.452-0.148-0.901-0.133-1.346c0.016-0.447,0.094-0.873,0.236-1.277
		c0.141-0.407,0.375-0.758,0.701-1.057c0.326-0.296,0.73-0.503,1.212-0.613c0.481-0.113,0.935-0.104,1.358,0.02
		C174.033,50.58,174.397,50.793,174.702,51.097z M171.891,52.991c-0.024,0.25-0.027,0.486-0.011,0.708
		c0.017,0.222,0.047,0.428,0.091,0.619c0.043,0.19,0.107,0.39,0.19,0.601c0.084,0.21,0.19,0.422,0.323,0.64
		c0.131,0.218,0.294,0.384,0.487,0.499c0.192,0.116,0.394,0.148,0.601,0.101c0.208-0.048,0.375-0.166,0.497-0.353
		c0.123-0.189,0.195-0.41,0.218-0.663c0.023-0.253,0.026-0.492,0.008-0.716c-0.017-0.226-0.048-0.433-0.092-0.623
		c-0.044-0.191-0.107-0.389-0.189-0.596c-0.082-0.206-0.189-0.417-0.32-0.631c-0.131-0.215-0.293-0.379-0.486-0.495
		s-0.394-0.148-0.602-0.1c-0.208,0.048-0.374,0.165-0.497,0.354C171.988,52.522,171.915,52.741,171.891,52.991z"/>
	<path fill="#5D5E5E" d="M168.523,58.806l-1.725,0.501l-1.927-6.635l2.676-0.777l0.424,1.461l-0.951,0.275L168.523,58.806z"/>
	<path fill="#5D5E5E" d="M162.614,60.667l-1.694,0.597l-2.302-6.514l2.626-0.928l0.507,1.434l-0.933,0.331L162.614,60.667z"/>
	<path fill="#5D5E5E" d="M156.825,62.857l-1.656,0.693l-2.668-6.374l2.57-1.075l0.587,1.403l-0.913,0.383L156.825,62.857z"/>
	<path fill="#5D5E5E" d="M149.956,59.305c0.365,0.226,0.694,0.508,0.985,0.845c0.292,0.337,0.54,0.715,0.742,1.133
		c0.161,0.329,0.285,0.668,0.375,1.014c0.089,0.348,0.137,0.699,0.14,1.057c0.004,0.359-0.042,0.695-0.137,1.009
		c-0.096,0.315-0.262,0.609-0.499,0.884c-0.237,0.274-0.534,0.498-0.892,0.669c-0.357,0.174-0.717,0.269-1.079,0.286
		c-0.362,0.016-0.696-0.037-1.002-0.155c-0.305-0.122-0.598-0.294-0.876-0.517c-0.279-0.226-0.526-0.48-0.743-0.766
		c-0.216-0.286-0.404-0.594-0.564-0.924c-0.202-0.417-0.345-0.845-0.429-1.283c-0.083-0.438-0.101-0.871-0.054-1.298
		c0.047-0.427,0.197-0.821,0.449-1.186c0.252-0.361,0.6-0.652,1.045-0.867c0.445-0.216,0.889-0.311,1.329-0.282
		C149.189,58.95,149.592,59.077,149.956,59.305z M147.636,61.777c0.033,0.25,0.082,0.48,0.148,0.692
		c0.066,0.213,0.141,0.407,0.227,0.583s0.191,0.357,0.319,0.542c0.127,0.187,0.28,0.372,0.457,0.552
		c0.176,0.184,0.372,0.31,0.585,0.379c0.213,0.07,0.417,0.058,0.609-0.036c0.192-0.093,0.327-0.246,0.404-0.456
		c0.079-0.21,0.1-0.441,0.066-0.694c-0.034-0.253-0.084-0.484-0.151-0.701c-0.066-0.216-0.143-0.411-0.229-0.586
		c-0.085-0.177-0.19-0.356-0.317-0.54c-0.126-0.184-0.277-0.365-0.452-0.544c-0.176-0.18-0.37-0.304-0.583-0.375
		c-0.214-0.069-0.417-0.057-0.609,0.037c-0.193,0.093-0.328,0.245-0.405,0.455C147.627,61.299,147.605,61.528,147.636,61.777z"/>
	<path fill="#5D5E5E" d="M145.636,68.2l-1.579,0.854l-3.287-6.077l2.451-1.325l0.724,1.338l-0.871,0.47L145.636,68.2z"/>
	<path fill="#5D5E5E" d="M138.402,65.423c0.389,0.184,0.748,0.425,1.077,0.726s0.62,0.647,0.869,1.038
		c0.197,0.308,0.36,0.63,0.49,0.963c0.13,0.335,0.217,0.678,0.263,1.034c0.045,0.356,0.039,0.695-0.02,1.017
		c-0.058,0.325-0.188,0.636-0.392,0.935c-0.203,0.3-0.473,0.557-0.807,0.771c-0.335,0.213-0.681,0.349-1.039,0.407
		c-0.357,0.058-0.696,0.045-1.014-0.038c-0.317-0.083-0.628-0.22-0.931-0.411c-0.302-0.192-0.578-0.415-0.826-0.674
		c-0.248-0.258-0.47-0.542-0.667-0.852c-0.25-0.39-0.441-0.8-0.576-1.225c-0.133-0.425-0.201-0.853-0.204-1.283
		c-0.002-0.429,0.101-0.839,0.309-1.229c0.208-0.39,0.52-0.717,0.937-0.984c0.417-0.266,0.847-0.41,1.288-0.435
		C137.599,65.16,138.014,65.241,138.402,65.423z M136.387,68.149c0.061,0.245,0.136,0.468,0.226,0.671
		c0.09,0.203,0.188,0.387,0.292,0.551c0.106,0.167,0.232,0.333,0.381,0.503c0.147,0.169,0.32,0.336,0.517,0.496
		c0.197,0.161,0.405,0.265,0.625,0.308c0.22,0.044,0.421,0.008,0.601-0.106c0.18-0.116,0.297-0.282,0.35-0.5
		c0.052-0.219,0.047-0.451-0.016-0.698c-0.062-0.246-0.14-0.472-0.232-0.678c-0.092-0.206-0.189-0.391-0.295-0.557
		c-0.105-0.164-0.231-0.331-0.377-0.497c-0.147-0.167-0.318-0.331-0.513-0.489s-0.402-0.259-0.623-0.302
		c-0.22-0.045-0.42-0.01-0.601,0.104c-0.181,0.116-0.297,0.282-0.35,0.5C136.32,67.674,136.325,67.905,136.387,68.149z"/>
	<path fill="#5D5E5E" d="M135.167,74.762l-1.454,1.054l-4.054-5.594l2.255-1.636l0.893,1.232l-0.802,0.582L135.167,74.762z"/>
	<path fill="#5D5E5E" d="M125.12,74.931c0.411,0.125,0.802,0.312,1.171,0.562c0.37,0.25,0.707,0.551,1.009,0.901
		c0.24,0.277,0.449,0.572,0.625,0.884c0.176,0.311,0.312,0.638,0.409,0.983s0.139,0.681,0.128,1.01
		c-0.011,0.329-0.095,0.657-0.253,0.982c-0.158,0.328-0.387,0.62-0.688,0.878c-0.3,0.26-0.623,0.445-0.969,0.554
		c-0.346,0.11-0.682,0.147-1.008,0.11c-0.326-0.037-0.653-0.128-0.98-0.274c-0.328-0.145-0.632-0.328-0.916-0.547
		c-0.283-0.219-0.544-0.468-0.784-0.745c-0.304-0.352-0.552-0.729-0.747-1.13c-0.193-0.401-0.323-0.815-0.387-1.24
		c-0.064-0.424-0.022-0.845,0.127-1.26c0.149-0.416,0.411-0.786,0.785-1.109c0.375-0.324,0.778-0.53,1.211-0.617
		C124.287,74.787,124.709,74.807,125.12,74.931z M123.519,77.92c0.096,0.232,0.203,0.442,0.321,0.63
		c0.119,0.189,0.242,0.356,0.37,0.504c0.127,0.148,0.277,0.295,0.448,0.442c0.172,0.147,0.367,0.285,0.584,0.415
		c0.217,0.131,0.439,0.202,0.663,0.215c0.225,0.011,0.417-0.052,0.579-0.192c0.162-0.14,0.253-0.322,0.273-0.545
		s-0.019-0.454-0.116-0.687c-0.097-0.234-0.207-0.448-0.327-0.639c-0.12-0.19-0.245-0.36-0.373-0.508
		c-0.128-0.147-0.276-0.294-0.446-0.438c-0.169-0.144-0.361-0.28-0.578-0.408c-0.215-0.128-0.436-0.199-0.661-0.21
		c-0.224-0.012-0.417,0.051-0.578,0.192c-0.162,0.139-0.253,0.321-0.273,0.545C123.386,77.46,123.424,77.689,123.519,77.92z"/>
	<path fill="#5D5E5E" d="M123.265,84.636l-1.287,1.251l-4.816-4.953l1.997-1.941l1.06,1.09l-0.709,0.689L123.265,84.636z"/>
	<path fill="#5D5E5E" d="M118.937,89.052l-1.206,1.331l-5.118-4.642l1.872-2.063l1.127,1.022l-0.666,0.733L118.937,89.052z"/>
	<path fill="#5D5E5E" d="M114.91,93.734l-1.111,1.41l-5.427-4.276l1.724-2.188l1.194,0.941l-0.612,0.778L114.91,93.734z"/>
	<path fill="#5D5E5E" d="M107.132,94.057c0.429,0.011,0.856,0.088,1.278,0.23c0.422,0.141,0.828,0.342,1.213,0.599
		c0.305,0.204,0.585,0.433,0.838,0.684c0.253,0.254,0.472,0.534,0.657,0.84c0.185,0.307,0.316,0.62,0.394,0.939
		c0.077,0.319,0.083,0.657,0.018,1.014c-0.065,0.356-0.208,0.699-0.428,1.03c-0.22,0.331-0.482,0.595-0.786,0.792
		c-0.304,0.198-0.618,0.322-0.943,0.373c-0.323,0.052-0.663,0.051-1.018,0c-0.354-0.054-0.696-0.147-1.028-0.284
		c-0.332-0.137-0.649-0.307-0.954-0.51c-0.386-0.257-0.727-0.554-1.021-0.888c-0.293-0.335-0.528-0.7-0.704-1.092
		c-0.176-0.391-0.246-0.808-0.214-1.249c0.033-0.441,0.187-0.866,0.46-1.277c0.275-0.413,0.609-0.718,1.003-0.918
		C106.291,94.141,106.703,94.047,107.132,94.057z M106.387,97.364c0.154,0.199,0.313,0.373,0.478,0.522
		c0.165,0.15,0.328,0.28,0.491,0.387c0.163,0.109,0.346,0.212,0.55,0.307c0.204,0.096,0.428,0.177,0.674,0.244
		c0.245,0.068,0.477,0.079,0.696,0.03c0.22-0.048,0.389-0.161,0.507-0.339c0.119-0.178,0.157-0.377,0.118-0.599
		c-0.04-0.222-0.138-0.431-0.295-0.631c-0.157-0.201-0.319-0.376-0.485-0.527c-0.167-0.151-0.332-0.281-0.495-0.39
		c-0.163-0.109-0.344-0.21-0.546-0.304s-0.424-0.174-0.666-0.24c-0.242-0.065-0.473-0.075-0.692-0.026
		c-0.22,0.048-0.389,0.161-0.507,0.339c-0.119,0.178-0.157,0.377-0.118,0.599C106.136,96.958,106.233,97.167,106.387,97.364z"/>
	<path fill="#5D5E5E" d="M103.468,99.71c0.429-0.032,0.86,0,1.296,0.099c0.434,0.097,0.857,0.256,1.268,0.473
		c0.324,0.171,0.625,0.37,0.903,0.596c0.278,0.226,0.524,0.482,0.739,0.769c0.215,0.285,0.377,0.585,0.486,0.894
		c0.109,0.31,0.15,0.646,0.122,1.007c-0.029,0.362-0.136,0.718-0.321,1.068c-0.186,0.352-0.42,0.642-0.702,0.867
		c-0.282,0.229-0.582,0.385-0.9,0.469c-0.317,0.083-0.655,0.117-1.012,0.102c-0.358-0.017-0.708-0.076-1.052-0.178
		c-0.343-0.102-0.677-0.237-1.001-0.41c-0.411-0.218-0.779-0.478-1.106-0.781c-0.326-0.304-0.597-0.642-0.811-1.013
		c-0.214-0.373-0.328-0.78-0.34-1.222c-0.011-0.442,0.099-0.88,0.33-1.318s0.532-0.777,0.904-1.015
		C102.641,99.879,103.041,99.743,103.468,99.71z M103.063,103.077c0.174,0.181,0.35,0.339,0.529,0.47
		c0.179,0.133,0.354,0.245,0.527,0.335c0.173,0.093,0.366,0.175,0.579,0.25c0.212,0.075,0.445,0.133,0.694,0.175
		c0.25,0.042,0.482,0.028,0.696-0.041c0.213-0.071,0.369-0.201,0.47-0.39c0.1-0.189,0.119-0.391,0.057-0.607
		c-0.062-0.216-0.182-0.415-0.357-0.599c-0.176-0.183-0.355-0.341-0.536-0.475c-0.183-0.133-0.359-0.246-0.532-0.337
		c-0.173-0.092-0.364-0.174-0.574-0.247c-0.209-0.074-0.439-0.13-0.687-0.17c-0.248-0.042-0.478-0.028-0.692,0.042
		c-0.213,0.071-0.37,0.201-0.469,0.39c-0.1,0.189-0.119,0.391-0.057,0.607C102.772,102.696,102.889,102.895,103.063,103.077z"/>
	<path fill="#5D5E5E" d="M105.58,109.363l-0.558,1.707l-6.567-2.146l0.865-2.647l1.446,0.473l-0.307,0.941L105.58,109.363z"/>
	<path fill="#5D5E5E" d="M98.409,112.711c0.395-0.168,0.813-0.277,1.257-0.322c0.443-0.048,0.895-0.034,1.353,0.04
		c0.362,0.057,0.71,0.148,1.046,0.273c0.336,0.125,0.652,0.288,0.947,0.49c0.296,0.201,0.545,0.433,0.749,0.689
		c0.204,0.259,0.349,0.564,0.438,0.916c0.089,0.351,0.103,0.723,0.041,1.115c-0.063,0.391-0.191,0.742-0.386,1.046
		c-0.193,0.307-0.428,0.551-0.702,0.733c-0.273,0.182-0.582,0.323-0.926,0.422c-0.343,0.1-0.694,0.157-1.052,0.171
		c-0.357,0.014-0.718-0.007-1.08-0.065c-0.458-0.073-0.891-0.202-1.298-0.383c-0.407-0.184-0.772-0.417-1.095-0.701
		c-0.323-0.283-0.561-0.631-0.715-1.045c-0.153-0.415-0.191-0.866-0.113-1.354c0.078-0.489,0.254-0.906,0.529-1.252
		C97.679,113.138,98.014,112.881,98.409,112.711z M99.108,116.03c0.223,0.116,0.441,0.208,0.652,0.275
		c0.212,0.068,0.415,0.117,0.607,0.147c0.193,0.031,0.403,0.048,0.628,0.051c0.226,0.001,0.463-0.019,0.714-0.06
		c0.251-0.04,0.466-0.127,0.646-0.263c0.179-0.135,0.285-0.308,0.319-0.52c0.034-0.211-0.013-0.409-0.142-0.593
		c-0.128-0.184-0.305-0.334-0.531-0.451c-0.226-0.117-0.446-0.209-0.661-0.278c-0.215-0.068-0.418-0.118-0.612-0.147
		c-0.193-0.031-0.4-0.048-0.623-0.05c-0.223-0.001-0.458,0.019-0.706,0.06c-0.247,0.041-0.461,0.128-0.641,0.264
		c-0.179,0.136-0.285,0.308-0.319,0.52c-0.034,0.212,0.014,0.41,0.142,0.593S98.886,115.913,99.108,116.03z"/>
	<path fill="#5D5E5E" d="M97.344,122.767c0.363-0.229,0.76-0.401,1.191-0.517c0.43-0.117,0.878-0.175,1.342-0.175
		c0.367,0,0.726,0.037,1.077,0.106c0.351,0.071,0.688,0.183,1.012,0.335c0.324,0.152,0.606,0.342,0.848,0.565
		c0.241,0.222,0.433,0.5,0.577,0.833c0.143,0.333,0.214,0.698,0.214,1.095s-0.072,0.762-0.216,1.095
		c-0.144,0.333-0.335,0.61-0.576,0.833c-0.242,0.223-0.524,0.41-0.849,0.564c-0.323,0.151-0.661,0.264-1.012,0.334
		c-0.352,0.069-0.71,0.105-1.077,0.105c-0.464,0-0.912-0.06-1.342-0.175s-0.827-0.289-1.191-0.517
		c-0.363-0.23-0.653-0.537-0.87-0.921c-0.216-0.386-0.325-0.825-0.325-1.32c0-0.496,0.109-0.935,0.326-1.319
		C96.69,123.302,96.981,122.996,97.344,122.767z M98.557,125.932c0.238,0.079,0.468,0.137,0.687,0.17
		c0.22,0.034,0.428,0.051,0.624,0.051s0.405-0.017,0.627-0.05c0.224-0.034,0.456-0.09,0.697-0.169
		c0.241-0.081,0.439-0.201,0.596-0.361c0.156-0.164,0.233-0.351,0.233-0.565c0-0.213-0.077-0.401-0.233-0.562
		c-0.155-0.163-0.354-0.283-0.596-0.362c-0.241-0.081-0.473-0.137-0.696-0.171c-0.223-0.032-0.432-0.049-0.627-0.049
		c-0.196,0-0.403,0.016-0.623,0.049c-0.221,0.033-0.449,0.089-0.688,0.169c-0.238,0.079-0.434,0.199-0.59,0.36
		c-0.156,0.164-0.234,0.351-0.234,0.565c0,0.213,0.078,0.401,0.234,0.562C98.123,125.732,98.319,125.852,98.557,125.932z"/>
	<path fill="#5D5E5E" d="M103.455,130.55l0.071,1.795l-6.904,0.273l-0.11-2.783l1.52-0.061l0.039,0.989L103.455,130.55z"/>
	<path fill="#5D5E5E" d="M103.697,136.811l0.049,1.794l-6.907,0.186l-0.075-2.785l1.521-0.041l0.027,0.99L103.697,136.811z"/>
	<path fill="#5D5E5E" d="M103.729,143.369l-0.07,1.794l-6.904-0.271l0.109-2.783l1.52,0.06l-0.039,0.989L103.729,143.369z"/>
	<path fill="#5D5E5E" d="M97.167,148.42c0.359-0.236,0.752-0.417,1.18-0.541c0.428-0.126,0.875-0.192,1.338-0.202
		c0.367-0.007,0.726,0.02,1.079,0.083c0.353,0.063,0.693,0.168,1.019,0.313c0.327,0.146,0.613,0.329,0.859,0.547
		c0.246,0.217,0.444,0.492,0.594,0.822c0.15,0.329,0.229,0.692,0.238,1.091c0.008,0.396-0.057,0.763-0.193,1.099
		c-0.137,0.334-0.323,0.616-0.56,0.845c-0.237,0.228-0.516,0.421-0.836,0.581s-0.656,0.278-1.005,0.354
		c-0.35,0.078-0.708,0.12-1.074,0.127c-0.463,0.012-0.913-0.039-1.346-0.146c-0.433-0.107-0.833-0.272-1.201-0.493
		c-0.368-0.222-0.665-0.523-0.89-0.904c-0.225-0.378-0.342-0.816-0.352-1.311c-0.01-0.494,0.089-0.938,0.299-1.326
		C96.525,148.971,96.809,148.658,97.167,148.42z M98.446,151.562c0.24,0.074,0.471,0.126,0.691,0.155
		c0.22,0.028,0.429,0.041,0.624,0.037c0.196-0.004,0.404-0.025,0.626-0.062c0.223-0.04,0.454-0.1,0.693-0.184
		c0.24-0.084,0.436-0.209,0.588-0.375c0.153-0.164,0.226-0.354,0.222-0.568c-0.004-0.213-0.086-0.4-0.245-0.558
		c-0.159-0.16-0.36-0.275-0.604-0.349c-0.242-0.076-0.476-0.127-0.699-0.155c-0.223-0.03-0.433-0.042-0.629-0.038
		c-0.195,0.004-0.402,0.024-0.621,0.063c-0.22,0.037-0.447,0.099-0.684,0.184c-0.237,0.083-0.432,0.209-0.584,0.373
		c-0.152,0.165-0.227,0.354-0.222,0.568c0.004,0.215,0.086,0.401,0.246,0.56C98.006,151.37,98.207,151.486,98.446,151.562z"/>
	<path fill="#5D5E5E" d="M97.676,155.66c0.298-0.309,0.642-0.574,1.031-0.79c0.39-0.218,0.81-0.381,1.26-0.495
		c0.356-0.087,0.713-0.141,1.071-0.158c0.357-0.017,0.712,0.011,1.063,0.081s0.671,0.184,0.958,0.342
		c0.288,0.158,0.542,0.381,0.762,0.67c0.22,0.29,0.377,0.625,0.473,1.01c0.096,0.387,0.114,0.757,0.056,1.116
		c-0.059,0.356-0.179,0.672-0.359,0.948c-0.18,0.275-0.409,0.525-0.687,0.751c-0.277,0.226-0.578,0.417-0.901,0.569
		c-0.324,0.152-0.663,0.274-1.019,0.362c-0.451,0.113-0.899,0.164-1.345,0.155s-0.873-0.079-1.281-0.213
		c-0.408-0.134-0.764-0.363-1.067-0.682c-0.304-0.322-0.515-0.724-0.635-1.204c-0.119-0.479-0.12-0.933-0.003-1.359
		C97.171,156.338,97.379,155.97,97.676,155.66z M99.62,158.439c0.25,0.02,0.486,0.018,0.708-0.001
		c0.221-0.021,0.427-0.055,0.616-0.102c0.19-0.047,0.389-0.115,0.597-0.201c0.208-0.086,0.419-0.198,0.635-0.332
		c0.215-0.136,0.378-0.302,0.49-0.496c0.112-0.195,0.142-0.396,0.09-0.603c-0.051-0.208-0.172-0.372-0.363-0.492
		c-0.19-0.119-0.412-0.188-0.665-0.206c-0.254-0.02-0.492-0.017-0.718,0.003c-0.224,0.022-0.431,0.056-0.621,0.104
		c-0.189,0.046-0.387,0.113-0.592,0.198c-0.205,0.086-0.414,0.196-0.626,0.331c-0.212,0.136-0.374,0.299-0.486,0.494
		c-0.112,0.195-0.142,0.396-0.09,0.604c0.052,0.208,0.173,0.372,0.363,0.49C99.148,158.35,99.369,158.419,99.62,158.439z"/>
	<path fill="#5D5E5E" d="M99.578,162.383c0.245-0.353,0.542-0.668,0.892-0.943c0.35-0.277,0.739-0.506,1.166-0.688
		c0.337-0.144,0.681-0.253,1.031-0.326c0.351-0.074,0.705-0.104,1.063-0.091c0.357,0.014,0.691,0.077,1,0.187
		c0.31,0.11,0.595,0.29,0.858,0.54c0.264,0.249,0.473,0.557,0.628,0.923c0.156,0.364,0.233,0.729,0.232,1.092
		c-0.001,0.362-0.069,0.692-0.203,0.992c-0.134,0.301-0.321,0.585-0.558,0.853c-0.238,0.266-0.504,0.501-0.799,0.704
		c-0.296,0.204-0.613,0.376-0.95,0.52c-0.426,0.184-0.861,0.305-1.302,0.367c-0.442,0.063-0.875,0.061-1.299-0.007
		c-0.425-0.069-0.812-0.236-1.162-0.504c-0.351-0.27-0.624-0.632-0.818-1.086c-0.194-0.455-0.267-0.903-0.219-1.341
		C99.188,163.132,99.333,162.736,99.578,162.383z M101.938,164.817c0.25-0.021,0.484-0.058,0.699-0.114
		c0.215-0.055,0.413-0.122,0.593-0.198c0.179-0.076,0.365-0.175,0.557-0.294s0.383-0.26,0.574-0.429
		c0.19-0.167,0.325-0.356,0.405-0.565c0.08-0.212,0.078-0.415-0.006-0.61c-0.084-0.197-0.229-0.339-0.436-0.426
		c-0.207-0.088-0.437-0.122-0.69-0.099c-0.253,0.021-0.489,0.061-0.707,0.117c-0.218,0.057-0.417,0.123-0.597,0.199
		c-0.18,0.078-0.365,0.175-0.554,0.292c-0.188,0.117-0.377,0.259-0.565,0.425s-0.321,0.356-0.401,0.565
		c-0.08,0.21-0.078,0.414,0.006,0.61c0.084,0.198,0.229,0.339,0.437,0.427C101.459,164.804,101.688,164.838,101.938,164.817z"/>
	<path fill="#5D5E5E" d="M102.435,168.643c0.194-0.383,0.446-0.736,0.756-1.055c0.31-0.322,0.665-0.602,1.062-0.839
		c0.315-0.189,0.641-0.343,0.978-0.463c0.337-0.12,0.685-0.198,1.041-0.233c0.356-0.036,0.695-0.019,1.017,0.048
		s0.63,0.208,0.924,0.419c0.293,0.212,0.543,0.487,0.747,0.828c0.204,0.342,0.33,0.69,0.378,1.051
		c0.047,0.359,0.025,0.695-0.067,1.012c-0.092,0.315-0.238,0.622-0.438,0.918c-0.199,0.298-0.432,0.568-0.697,0.808
		s-0.555,0.455-0.869,0.644c-0.398,0.237-0.812,0.418-1.242,0.54c-0.429,0.121-0.858,0.178-1.288,0.167
		c-0.429-0.008-0.836-0.125-1.22-0.342c-0.383-0.219-0.703-0.541-0.957-0.966c-0.254-0.424-0.386-0.856-0.398-1.298
		C102.15,169.438,102.242,169.025,102.435,168.643z M105.103,170.735c0.246-0.054,0.471-0.123,0.677-0.207
		c0.206-0.084,0.394-0.178,0.561-0.277c0.167-0.102,0.338-0.223,0.513-0.367c0.174-0.143,0.344-0.311,0.51-0.503
		c0.166-0.192,0.275-0.397,0.325-0.616c0.051-0.219,0.021-0.421-0.089-0.603c-0.109-0.184-0.273-0.305-0.489-0.363
		c-0.217-0.06-0.449-0.062-0.697-0.006s-0.476,0.127-0.685,0.212c-0.208,0.086-0.397,0.179-0.564,0.28
		c-0.167,0.1-0.337,0.222-0.509,0.364c-0.171,0.141-0.338,0.307-0.502,0.498c-0.164,0.19-0.271,0.396-0.322,0.614
		c-0.05,0.219-0.02,0.419,0.09,0.604c0.109,0.184,0.273,0.305,0.49,0.364C104.627,170.787,104.858,170.788,105.103,170.735z"/>
	<path fill="#5D5E5E" d="M108.254,177.205c0.109-0.416,0.28-0.813,0.515-1.192c0.234-0.378,0.521-0.728,0.859-1.045
		c0.268-0.251,0.554-0.47,0.858-0.658c0.304-0.189,0.626-0.339,0.967-0.449c0.34-0.11,0.675-0.167,1.004-0.169
		c0.328-0.003,0.659,0.068,0.991,0.213c0.333,0.146,0.635,0.361,0.906,0.651c0.272,0.291,0.469,0.605,0.592,0.947
		c0.124,0.342,0.173,0.675,0.15,1.003s-0.101,0.658-0.233,0.992c-0.131,0.332-0.301,0.644-0.509,0.935
		c-0.208,0.291-0.447,0.562-0.714,0.814c-0.338,0.317-0.705,0.582-1.098,0.791c-0.394,0.21-0.801,0.356-1.223,0.438
		c-0.421,0.082-0.844,0.056-1.265-0.077c-0.422-0.133-0.802-0.378-1.14-0.74c-0.339-0.361-0.561-0.756-0.666-1.184
		C108.144,178.043,108.145,177.62,108.254,177.205z M111.305,178.684c0.228-0.106,0.434-0.222,0.617-0.346
		c0.184-0.127,0.346-0.257,0.489-0.39c0.143-0.133,0.284-0.288,0.423-0.466c0.14-0.178,0.271-0.377,0.392-0.599
		c0.122-0.223,0.184-0.448,0.187-0.672c0.003-0.225-0.068-0.415-0.215-0.571c-0.146-0.155-0.332-0.24-0.556-0.251
		c-0.224-0.011-0.451,0.037-0.682,0.144c-0.23,0.107-0.438,0.224-0.624,0.352c-0.185,0.128-0.349,0.258-0.492,0.393
		c-0.142,0.134-0.283,0.288-0.42,0.463c-0.137,0.175-0.266,0.373-0.384,0.593c-0.12,0.222-0.181,0.444-0.185,0.668
		c-0.003,0.225,0.069,0.415,0.216,0.57c0.146,0.157,0.331,0.24,0.556,0.252C110.85,178.835,111.077,178.79,111.305,178.684z"/>
	<path fill="#5D5E5E" d="M118.058,178.312l1.455,1.053l-4.049,5.598l-2.257-1.633l0.891-1.231l0.802,0.579L118.058,178.312z"/>
	<path fill="#5D5E5E" d="M123.073,181.23l1.696,0.591l-2.275,6.523l-2.63-0.917l0.501-1.437l0.935,0.326L123.073,181.23z"/>
	<path fill="#5D5E5E" d="M131.096,185.084c-0.426-0.06-0.841-0.181-1.245-0.37c-0.404-0.188-0.785-0.433-1.139-0.729
		c-0.281-0.237-0.533-0.495-0.756-0.774c-0.224-0.28-0.411-0.582-0.56-0.907c-0.15-0.325-0.245-0.651-0.287-0.978
		c-0.041-0.326-0.01-0.663,0.095-1.01c0.104-0.346,0.284-0.673,0.54-0.977c0.256-0.305,0.545-0.537,0.87-0.701
		c0.324-0.161,0.65-0.251,0.978-0.266c0.328-0.017,0.666,0.021,1.012,0.113s0.676,0.223,0.99,0.396
		c0.313,0.172,0.612,0.375,0.892,0.612c0.355,0.298,0.661,0.631,0.916,0.997c0.254,0.366,0.448,0.753,0.579,1.163
		s0.155,0.831,0.073,1.266c-0.081,0.434-0.281,0.839-0.599,1.217c-0.319,0.379-0.685,0.647-1.099,0.803
		C131.941,185.096,131.522,185.144,131.096,185.084z M132.203,181.88c-0.131-0.215-0.271-0.405-0.417-0.573
		c-0.147-0.167-0.295-0.314-0.444-0.438c-0.15-0.127-0.321-0.249-0.514-0.366c-0.192-0.117-0.406-0.223-0.642-0.318
		c-0.236-0.095-0.466-0.13-0.689-0.106c-0.224,0.024-0.403,0.118-0.541,0.281c-0.138,0.164-0.199,0.357-0.184,0.582
		c0.015,0.223,0.089,0.444,0.223,0.66c0.134,0.216,0.275,0.408,0.425,0.578c0.148,0.169,0.298,0.316,0.448,0.442
		s0.319,0.247,0.509,0.363c0.19,0.116,0.402,0.219,0.635,0.311c0.234,0.093,0.462,0.127,0.686,0.104
		c0.223-0.024,0.404-0.119,0.541-0.283c0.138-0.162,0.199-0.355,0.184-0.581C132.408,182.312,132.334,182.094,132.203,181.88z"/>
	<path fill="#5D5E5E" d="M130.998,175.203l0.859-1.576l6.067,3.304l-1.333,2.447l-1.335-0.728l0.473-0.869L130.998,175.203z"/>
	<path fill="#5D5E5E" d="M138.706,172.947c-0.413,0.12-0.843,0.175-1.288,0.167c-0.446-0.007-0.892-0.077-1.338-0.204
		c-0.353-0.102-0.688-0.236-1.005-0.401c-0.319-0.164-0.612-0.364-0.88-0.602c-0.269-0.236-0.488-0.495-0.658-0.777
		c-0.171-0.28-0.278-0.601-0.323-0.961c-0.046-0.359-0.014-0.73,0.097-1.112s0.28-0.712,0.51-0.993
		c0.23-0.28,0.493-0.492,0.786-0.64s0.618-0.25,0.971-0.307c0.354-0.057,0.708-0.071,1.066-0.04
		c0.357,0.028,0.711,0.096,1.064,0.196c0.445,0.129,0.859,0.31,1.241,0.54c0.381,0.23,0.715,0.507,1.001,0.828
		c0.285,0.321,0.479,0.696,0.581,1.126c0.101,0.429,0.083,0.883-0.053,1.359c-0.138,0.475-0.364,0.867-0.678,1.177
		C139.482,172.613,139.118,172.828,138.706,172.947z M138.417,169.569c-0.207-0.143-0.411-0.262-0.613-0.355
		c-0.202-0.093-0.397-0.167-0.585-0.22s-0.393-0.096-0.617-0.125c-0.224-0.03-0.462-0.04-0.716-0.03
		c-0.254,0.008-0.479,0.071-0.673,0.182c-0.195,0.112-0.321,0.271-0.38,0.476c-0.06,0.207-0.037,0.408,0.068,0.607
		c0.105,0.198,0.263,0.369,0.472,0.511c0.21,0.145,0.417,0.263,0.622,0.356c0.205,0.094,0.401,0.169,0.589,0.223
		s0.392,0.096,0.612,0.124s0.457,0.038,0.708,0.028c0.251-0.011,0.474-0.071,0.668-0.184c0.194-0.113,0.321-0.271,0.38-0.478
		c0.06-0.205,0.037-0.407-0.068-0.606S138.625,169.712,138.417,169.569z"/>
	<path fill="#5D5E5E" d="M140.417,165.95c-0.379,0.202-0.787,0.346-1.226,0.431c-0.437,0.084-0.888,0.112-1.351,0.079
		c-0.366-0.027-0.721-0.087-1.066-0.182c-0.346-0.095-0.675-0.23-0.986-0.406c-0.312-0.175-0.58-0.383-0.805-0.623
		c-0.226-0.239-0.397-0.53-0.517-0.872c-0.119-0.343-0.165-0.712-0.136-1.109c0.028-0.396,0.125-0.754,0.293-1.076
		c0.167-0.322,0.378-0.586,0.635-0.79c0.256-0.207,0.552-0.373,0.885-0.503c0.334-0.129,0.678-0.216,1.035-0.262
		c0.354-0.043,0.715-0.055,1.081-0.028c0.463,0.033,0.906,0.123,1.327,0.27c0.422,0.147,0.805,0.346,1.151,0.602
		c0.346,0.254,0.614,0.581,0.802,0.98c0.189,0.398,0.266,0.845,0.231,1.339c-0.035,0.493-0.175,0.924-0.419,1.292
		S140.796,165.748,140.417,165.95z M139.431,162.705c-0.231-0.096-0.456-0.168-0.673-0.217c-0.218-0.048-0.423-0.081-0.618-0.094
		c-0.195-0.015-0.406-0.014-0.63,0.004c-0.225,0.019-0.459,0.058-0.706,0.12s-0.454,0.167-0.62,0.318
		c-0.167,0.151-0.258,0.332-0.273,0.545c-0.016,0.213,0.049,0.407,0.193,0.579c0.144,0.172,0.333,0.307,0.568,0.403
		c0.235,0.097,0.463,0.169,0.683,0.22c0.22,0.048,0.427,0.081,0.623,0.093c0.194,0.014,0.402,0.013,0.625-0.006
		c0.222-0.017,0.454-0.057,0.697-0.119s0.448-0.169,0.616-0.319c0.167-0.151,0.258-0.333,0.272-0.545
		c0.016-0.213-0.048-0.407-0.193-0.58C139.851,162.937,139.664,162.801,139.431,162.705z"/>
	<path fill="#5D5E5E" d="M134.545,157.984l-0.197-1.786l6.868-0.757l0.305,2.769l-1.512,0.167l-0.108-0.983L134.545,157.984z"/>
	<path fill="#5D5E5E" d="M138.879,148.713c-0.273,0.331-0.597,0.619-0.97,0.863c-0.373,0.246-0.779,0.441-1.22,0.585
		c-0.348,0.114-0.7,0.192-1.056,0.236c-0.356,0.044-0.711,0.042-1.066-0.001c-0.355-0.043-0.682-0.134-0.981-0.271
		c-0.299-0.136-0.569-0.339-0.809-0.61c-0.239-0.272-0.422-0.596-0.546-0.975c-0.124-0.376-0.169-0.746-0.137-1.107
		c0.033-0.36,0.129-0.684,0.288-0.972c0.16-0.287,0.37-0.554,0.629-0.799c0.261-0.246,0.546-0.458,0.858-0.633
		c0.311-0.178,0.641-0.322,0.989-0.438c0.441-0.144,0.884-0.229,1.33-0.254c0.445-0.022,0.876,0.017,1.292,0.122
		c0.417,0.104,0.789,0.305,1.115,0.602c0.326,0.3,0.566,0.683,0.721,1.153c0.155,0.469,0.189,0.921,0.103,1.355
		C139.333,148,139.153,148.381,138.879,148.713z M136.737,146.084c-0.251,0-0.486,0.017-0.706,0.054
		c-0.22,0.037-0.422,0.084-0.608,0.147c-0.186,0.062-0.378,0.143-0.581,0.243c-0.201,0.102-0.404,0.229-0.608,0.378
		c-0.205,0.153-0.355,0.328-0.453,0.531c-0.097,0.202-0.113,0.404-0.046,0.607c0.066,0.204,0.199,0.357,0.398,0.463
		c0.199,0.104,0.424,0.158,0.679,0.158s0.492-0.02,0.715-0.058c0.222-0.039,0.426-0.086,0.612-0.148
		c0.186-0.061,0.378-0.141,0.576-0.242c0.198-0.1,0.398-0.226,0.6-0.375c0.202-0.15,0.351-0.327,0.449-0.529
		c0.097-0.202,0.113-0.405,0.046-0.608c-0.066-0.204-0.199-0.356-0.398-0.462C137.213,146.138,136.989,146.085,136.737,146.084z"/>
	<path fill="#5D5E5E" d="M130.55,143.375l-0.733-1.639l6.307-2.823l1.138,2.543l-1.389,0.622l-0.403-0.904L130.55,143.375z"/>
	<path fill="#5D5E5E" d="M127.852,137.847l-0.866-1.574l6.054-3.33l1.343,2.441l-1.333,0.732l-0.477-0.866L127.852,137.847z"/>
	<path fill="#5D5E5E" d="M130.612,130.601c-0.182,0.39-0.424,0.749-0.723,1.079c-0.3,0.331-0.646,0.62-1.036,0.871
		c-0.309,0.198-0.63,0.361-0.963,0.491c-0.333,0.131-0.678,0.221-1.033,0.266c-0.355,0.045-0.694,0.041-1.018-0.017
		c-0.323-0.057-0.635-0.187-0.936-0.39c-0.3-0.203-0.558-0.472-0.773-0.807c-0.213-0.333-0.35-0.68-0.409-1.038
		c-0.059-0.357-0.047-0.695,0.036-1.013c0.083-0.318,0.219-0.628,0.409-0.931c0.19-0.305,0.414-0.579,0.672-0.83
		c0.258-0.247,0.541-0.472,0.85-0.669c0.391-0.25,0.799-0.442,1.224-0.578c0.426-0.134,0.853-0.204,1.283-0.206
		c0.429-0.003,0.84,0.099,1.229,0.305c0.39,0.207,0.719,0.519,0.986,0.936c0.267,0.417,0.413,0.845,0.438,1.287
		C130.874,129.797,130.794,130.211,130.612,130.601z M127.882,128.591c-0.244,0.062-0.467,0.137-0.67,0.228
		c-0.203,0.09-0.387,0.189-0.551,0.294c-0.165,0.106-0.332,0.233-0.501,0.381c-0.17,0.15-0.335,0.322-0.495,0.52
		c-0.16,0.196-0.262,0.404-0.306,0.624c-0.043,0.221-0.007,0.421,0.107,0.602c0.116,0.179,0.283,0.296,0.501,0.348
		c0.219,0.054,0.451,0.048,0.696-0.017c0.247-0.062,0.473-0.141,0.678-0.232c0.206-0.093,0.391-0.192,0.556-0.296
		c0.165-0.106,0.33-0.232,0.497-0.379c0.168-0.147,0.33-0.319,0.487-0.514c0.158-0.195,0.259-0.404,0.302-0.624
		c0.044-0.219,0.009-0.42-0.107-0.599c-0.115-0.181-0.282-0.297-0.5-0.349C128.356,128.524,128.125,128.53,127.882,128.591z"/>
	<path fill="#5D5E5E" d="M127.036,125.137c-0.16,0.398-0.38,0.771-0.662,1.117s-0.61,0.655-0.986,0.928
		c-0.297,0.214-0.608,0.396-0.934,0.545c-0.326,0.148-0.665,0.255-1.016,0.322c-0.353,0.065-0.691,0.079-1.018,0.04
		s-0.645-0.151-0.956-0.336c-0.312-0.187-0.583-0.441-0.816-0.763c-0.233-0.32-0.388-0.658-0.467-1.013
		c-0.079-0.353-0.086-0.691-0.021-1.013c0.064-0.322,0.183-0.642,0.355-0.955c0.173-0.312,0.382-0.601,0.625-0.863
		c0.243-0.263,0.513-0.501,0.811-0.716c0.375-0.272,0.771-0.487,1.189-0.646c0.417-0.16,0.84-0.251,1.269-0.278
		c0.429-0.028,0.843,0.051,1.244,0.234c0.401,0.187,0.748,0.479,1.037,0.879c0.29,0.401,0.46,0.822,0.51,1.26
		C127.251,124.319,127.196,124.739,127.036,125.137z M124.197,123.284c-0.239,0.073-0.458,0.164-0.657,0.264
		c-0.197,0.103-0.375,0.21-0.534,0.325s-0.318,0.25-0.479,0.408s-0.316,0.339-0.465,0.545c-0.149,0.207-0.239,0.421-0.271,0.643
		c-0.031,0.222,0.016,0.42,0.141,0.593c0.125,0.174,0.299,0.28,0.52,0.321c0.221,0.04,0.452,0.02,0.694-0.056
		c0.242-0.077,0.463-0.167,0.663-0.271c0.201-0.103,0.38-0.212,0.538-0.326c0.158-0.115,0.317-0.25,0.476-0.405
		c0.158-0.157,0.311-0.336,0.457-0.542c0.147-0.203,0.235-0.417,0.266-0.64c0.033-0.222-0.015-0.419-0.14-0.593
		c-0.126-0.172-0.299-0.28-0.52-0.319S124.437,123.208,124.197,123.284z"/>
	<path fill="#5D5E5E" d="M123.186,119.902c-0.141,0.407-0.343,0.788-0.607,1.148s-0.577,0.684-0.939,0.973
		c-0.287,0.229-0.589,0.427-0.907,0.59c-0.318,0.164-0.652,0.289-1,0.37c-0.349,0.083-0.686,0.113-1.014,0.089
		c-0.329-0.024-0.652-0.12-0.972-0.29c-0.32-0.172-0.604-0.413-0.851-0.722c-0.249-0.309-0.42-0.64-0.516-0.99
		c-0.096-0.349-0.119-0.687-0.07-1.011c0.049-0.325,0.153-0.647,0.311-0.969c0.157-0.322,0.351-0.619,0.582-0.893
		c0.23-0.274,0.489-0.526,0.775-0.754c0.363-0.291,0.749-0.526,1.158-0.704c0.409-0.178,0.827-0.291,1.254-0.339
		c0.426-0.048,0.845,0.012,1.255,0.177c0.409,0.166,0.769,0.441,1.078,0.827c0.309,0.387,0.499,0.799,0.569,1.234
		C123.361,119.075,123.327,119.496,123.186,119.902z M120.261,118.187c-0.235,0.088-0.449,0.187-0.643,0.297
		c-0.192,0.11-0.365,0.228-0.518,0.35c-0.152,0.122-0.306,0.266-0.459,0.43c-0.153,0.167-0.299,0.356-0.438,0.568
		c-0.139,0.212-0.219,0.431-0.239,0.655c-0.021,0.223,0.036,0.418,0.169,0.585c0.133,0.167,0.312,0.266,0.534,0.295
		c0.222,0.03,0.453-0.001,0.691-0.089c0.238-0.089,0.455-0.189,0.649-0.303c0.195-0.113,0.369-0.231,0.521-0.353
		s0.305-0.264,0.456-0.428c0.151-0.164,0.294-0.352,0.432-0.561c0.136-0.212,0.215-0.43,0.235-0.653
		c0.02-0.223-0.036-0.418-0.169-0.586c-0.134-0.167-0.311-0.264-0.534-0.294C120.726,118.071,120.497,118.099,120.261,118.187z"/>
	<path fill="#5D5E5E" d="M119.113,114.877c-0.124,0.411-0.309,0.802-0.558,1.174c-0.249,0.37-0.548,0.707-0.898,1.011
		c-0.277,0.242-0.571,0.451-0.881,0.627c-0.312,0.178-0.639,0.316-0.984,0.414c-0.344,0.097-0.68,0.141-1.009,0.131
		c-0.329-0.009-0.656-0.093-0.982-0.249c-0.327-0.158-0.621-0.386-0.881-0.685c-0.262-0.3-0.447-0.622-0.558-0.968
		c-0.11-0.345-0.147-0.681-0.112-1.007c0.036-0.326,0.126-0.654,0.269-0.982c0.144-0.328,0.325-0.633,0.544-0.917
		c0.219-0.284,0.466-0.546,0.743-0.787c0.35-0.305,0.725-0.554,1.126-0.75c0.4-0.196,0.813-0.327,1.238-0.392
		c0.424-0.066,0.845-0.025,1.261,0.122c0.417,0.148,0.788,0.408,1.112,0.783c0.326,0.373,0.533,0.774,0.622,1.208
		C119.253,114.043,119.237,114.466,119.113,114.877z M116.118,113.288c-0.232,0.096-0.441,0.204-0.629,0.324
		c-0.188,0.119-0.355,0.241-0.503,0.372c-0.147,0.127-0.294,0.278-0.44,0.449c-0.146,0.172-0.284,0.367-0.414,0.584
		c-0.13,0.219-0.201,0.441-0.211,0.664c-0.011,0.226,0.053,0.418,0.193,0.579s0.323,0.251,0.546,0.271
		c0.224,0.02,0.453-0.02,0.688-0.119c0.234-0.098,0.446-0.208,0.636-0.329c0.19-0.12,0.359-0.246,0.506-0.375
		c0.148-0.127,0.293-0.277,0.437-0.446c0.144-0.169,0.28-0.363,0.407-0.58c0.128-0.217,0.197-0.438,0.208-0.661
		c0.011-0.225-0.054-0.418-0.194-0.579c-0.14-0.161-0.322-0.251-0.546-0.271C116.578,113.152,116.351,113.191,116.118,113.288z"/>
	<path fill="#5D5E5E" d="M109.415,113.002l-1.231-1.307l5.031-4.735l1.909,2.028l-1.107,1.043l-0.678-0.721L109.415,113.002z"/>
	<path fill="#5D5E5E" d="M98.286,102.125l-1.347-1.189l4.572-5.179l2.088,1.843l-1.006,1.14l-0.742-0.656L98.286,102.125z"/>
	<path fill="#5D5E5E" d="M93.564,98.122l-1.41-1.112l4.278-5.425l2.188,1.725l-0.942,1.195l-0.777-0.613L93.564,98.122z"/>
	<path fill="#5D5E5E" d="M93.294,90.366c-0.017,0.43-0.1,0.856-0.248,1.276c-0.148,0.421-0.354,0.822-0.616,1.205
		c-0.208,0.302-0.44,0.578-0.697,0.828c-0.256,0.25-0.54,0.465-0.849,0.644c-0.309,0.181-0.624,0.308-0.944,0.38
		c-0.321,0.072-0.658,0.075-1.014,0.004c-0.355-0.07-0.696-0.217-1.024-0.443c-0.327-0.225-0.587-0.492-0.78-0.797
		c-0.193-0.308-0.313-0.625-0.359-0.949c-0.047-0.325-0.042-0.664,0.016-1.017c0.057-0.353,0.156-0.695,0.297-1.024
		c0.142-0.329,0.316-0.644,0.523-0.946c0.263-0.383,0.564-0.719,0.904-1.007c0.339-0.29,0.707-0.52,1.102-0.689
		c0.395-0.169,0.812-0.234,1.252-0.195c0.439,0.04,0.864,0.198,1.271,0.479c0.408,0.28,0.709,0.619,0.903,1.016
		C93.223,89.524,93.312,89.938,93.294,90.366z M89.998,89.575c-0.201,0.151-0.377,0.308-0.529,0.469
		c-0.152,0.164-0.284,0.325-0.395,0.486s-0.215,0.343-0.314,0.545c-0.099,0.203-0.184,0.426-0.254,0.669
		c-0.071,0.245-0.085,0.478-0.04,0.696c0.045,0.221,0.156,0.392,0.332,0.513c0.176,0.12,0.375,0.162,0.597,0.125
		c0.222-0.037,0.434-0.131,0.636-0.287c0.202-0.153,0.38-0.312,0.534-0.478c0.154-0.164,0.287-0.328,0.397-0.489
		c0.111-0.161,0.215-0.342,0.312-0.542c0.097-0.199,0.18-0.421,0.25-0.661c0.069-0.242,0.081-0.472,0.036-0.692
		c-0.045-0.22-0.156-0.39-0.332-0.511c-0.177-0.122-0.375-0.164-0.597-0.127C90.409,89.329,90.199,89.422,89.998,89.575z"/>
	<path fill="#5D5E5E" d="M83.437,91.058l-1.546-0.914l3.515-5.949l2.398,1.418l-0.773,1.308l-0.853-0.503L83.437,91.058z"/>
	<path fill="#5D5E5E" d="M78.039,88.052l-1.601-0.814l3.13-6.159l2.483,1.263l-0.689,1.356l-0.882-0.449L78.039,88.052z"/>
	<path fill="#5D5E5E" d="M76.313,80.525c0.062,0.425,0.057,0.859-0.012,1.298c-0.069,0.44-0.199,0.873-0.388,1.297
		c-0.149,0.334-0.327,0.648-0.535,0.94c-0.207,0.292-0.446,0.556-0.717,0.789c-0.271,0.233-0.558,0.415-0.86,0.545
		c-0.302,0.128-0.634,0.192-0.996,0.188c-0.362-0.005-0.725-0.087-1.087-0.25c-0.363-0.161-0.667-0.375-0.913-0.643
		c-0.246-0.266-0.421-0.555-0.527-0.867c-0.105-0.311-0.161-0.645-0.169-1.003c-0.007-0.357,0.028-0.712,0.107-1.059
		c0.079-0.351,0.193-0.692,0.342-1.027c0.189-0.424,0.425-0.81,0.706-1.155c0.282-0.346,0.601-0.639,0.958-0.877
		c0.357-0.237,0.756-0.378,1.196-0.419c0.439-0.041,0.886,0.038,1.338,0.24c0.452,0.202,0.81,0.479,1.072,0.835
		C76.09,79.71,76.251,80.1,76.313,80.525z M72.928,80.345c-0.169,0.187-0.315,0.372-0.435,0.559c-0.12,0.187-0.221,0.37-0.3,0.548
		c-0.08,0.178-0.149,0.375-0.209,0.593c-0.06,0.218-0.103,0.452-0.128,0.707c-0.026,0.251,0.003,0.483,0.088,0.69
		c0.084,0.208,0.224,0.355,0.42,0.442c0.195,0.087,0.398,0.093,0.609,0.017c0.211-0.077,0.402-0.209,0.573-0.397
		c0.171-0.188,0.318-0.377,0.439-0.567c0.121-0.19,0.222-0.375,0.301-0.554c0.079-0.178,0.149-0.374,0.208-0.589
		c0.06-0.215,0.101-0.448,0.125-0.696c0.025-0.25-0.005-0.479-0.089-0.687c-0.085-0.209-0.225-0.356-0.419-0.444
		c-0.196-0.087-0.398-0.093-0.61-0.017C73.288,80.028,73.097,80.16,72.928,80.345z"/>
	<path fill="#5D5E5E" d="M70.42,77.944c0.076,0.422,0.087,0.855,0.032,1.298c-0.055,0.443-0.169,0.879-0.344,1.31
		c-0.138,0.339-0.305,0.66-0.502,0.958c-0.197,0.299-0.427,0.569-0.69,0.812c-0.264,0.243-0.544,0.434-0.841,0.574
		c-0.297,0.14-0.627,0.214-0.99,0.222c-0.362,0.007-0.728-0.063-1.095-0.213c-0.368-0.148-0.68-0.353-0.934-0.61
		c-0.255-0.258-0.44-0.541-0.556-0.849c-0.116-0.306-0.184-0.64-0.204-0.996c-0.02-0.359,0.004-0.712,0.071-1.065
		c0.067-0.352,0.17-0.698,0.307-1.037c0.174-0.43,0.397-0.822,0.667-1.178s0.578-0.658,0.927-0.91
		c0.349-0.25,0.743-0.404,1.181-0.46c0.438-0.057,0.887,0.008,1.345,0.195c0.458,0.187,0.825,0.452,1.1,0.797
		C70.169,77.138,70.345,77.522,70.42,77.944z M67.031,77.878c-0.163,0.192-0.302,0.383-0.416,0.574
		c-0.113,0.192-0.207,0.378-0.281,0.56c-0.073,0.181-0.136,0.381-0.189,0.599c-0.053,0.221-0.088,0.457-0.104,0.709
		c-0.018,0.254,0.02,0.483,0.11,0.689c0.092,0.205,0.237,0.348,0.435,0.428c0.199,0.081,0.402,0.078,0.61-0.004
		c0.208-0.084,0.396-0.223,0.56-0.417c0.164-0.193,0.304-0.387,0.419-0.581c0.115-0.195,0.209-0.381,0.282-0.563
		c0.073-0.181,0.136-0.38,0.188-0.596c0.051-0.216,0.084-0.451,0.101-0.701c0.016-0.25-0.021-0.479-0.113-0.684
		c-0.091-0.205-0.236-0.347-0.434-0.428c-0.198-0.081-0.401-0.079-0.61,0.004C67.38,77.55,67.194,77.689,67.031,77.878z"/>
	<path fill="#5D5E5E" d="M52.441,71.128c0.112,0.416,0.16,0.845,0.144,1.291c-0.016,0.445-0.093,0.89-0.229,1.333
		c-0.108,0.351-0.248,0.684-0.418,0.998c-0.17,0.315-0.377,0.604-0.618,0.87c-0.241,0.263-0.504,0.478-0.788,0.643
		c-0.285,0.166-0.607,0.267-0.967,0.307c-0.36,0.038-0.73,0-1.11-0.119c-0.379-0.116-0.707-0.292-0.983-0.528
		c-0.275-0.234-0.484-0.5-0.626-0.796c-0.142-0.297-0.238-0.622-0.288-0.977c-0.051-0.354-0.058-0.709-0.021-1.066
		c0.036-0.356,0.108-0.709,0.216-1.06c0.137-0.443,0.324-0.853,0.562-1.231c0.238-0.376,0.521-0.705,0.846-0.985
		c0.326-0.28,0.706-0.468,1.137-0.561c0.432-0.093,0.883-0.067,1.357,0.079c0.473,0.145,0.861,0.379,1.165,0.699
		C52.122,70.346,52.33,70.713,52.441,71.128z M49.059,71.354c-0.146,0.205-0.268,0.407-0.364,0.607s-0.174,0.393-0.232,0.581
		c-0.057,0.187-0.103,0.391-0.136,0.614c-0.034,0.224-0.048,0.461-0.043,0.715c0.004,0.254,0.061,0.48,0.17,0.677
		c0.108,0.196,0.265,0.327,0.469,0.389c0.205,0.063,0.407,0.045,0.607-0.057s0.375-0.254,0.521-0.463
		c0.148-0.206,0.27-0.411,0.368-0.614c0.098-0.204,0.175-0.398,0.233-0.585c0.057-0.188,0.103-0.391,0.135-0.61
		c0.033-0.22,0.046-0.456,0.041-0.708c-0.006-0.25-0.063-0.475-0.172-0.67c-0.109-0.198-0.266-0.328-0.47-0.39
		c-0.204-0.063-0.407-0.045-0.607,0.057C49.379,70.999,49.205,71.151,49.059,71.354z"/>
	<path fill="#5D5E5E" d="M43.204,74.636l-1.733-0.472l1.816-6.666l2.688,0.731l-0.399,1.469l-0.955-0.261L43.204,74.636z"/>
	<path fill="#5D5E5E" d="M37.157,73.05l-1.744-0.433l1.668-6.704l2.703,0.672l-0.367,1.475l-0.96-0.237L37.157,73.05z"/>
	<path fill="#5D5E5E" d="M31.066,71.572l-1.748-0.412l1.588-6.725l2.711,0.64l-0.349,1.48l-0.964-0.228L31.066,71.572z"/>
	<path fill="#5D5E5E" d="M27.838,64.664c0.14,0.406,0.218,0.831,0.232,1.277c0.015,0.447-0.03,0.896-0.136,1.348
		c-0.084,0.356-0.2,0.698-0.349,1.023c-0.148,0.328-0.333,0.63-0.556,0.91c-0.222,0.281-0.469,0.513-0.742,0.698
		c-0.272,0.184-0.587,0.308-0.944,0.371c-0.356,0.064-0.729,0.05-1.115-0.041c-0.386-0.09-0.725-0.243-1.017-0.459
		c-0.291-0.216-0.518-0.466-0.68-0.753c-0.162-0.285-0.28-0.603-0.354-0.952c-0.075-0.35-0.107-0.705-0.095-1.062
		c0.011-0.359,0.059-0.716,0.143-1.074c0.106-0.452,0.264-0.873,0.476-1.266c0.212-0.393,0.47-0.74,0.776-1.043
		c0.306-0.302,0.671-0.514,1.095-0.637c0.424-0.123,0.877-0.129,1.359-0.016c0.481,0.113,0.885,0.319,1.21,0.617
		C27.466,63.904,27.699,64.257,27.838,64.664z M24.479,65.123c-0.131,0.213-0.238,0.425-0.322,0.632
		c-0.083,0.206-0.146,0.404-0.191,0.593c-0.044,0.192-0.076,0.398-0.095,0.624c-0.018,0.224-0.015,0.463,0.007,0.715
		c0.022,0.254,0.095,0.475,0.217,0.664c0.121,0.188,0.287,0.307,0.495,0.356c0.208,0.048,0.409,0.016,0.602-0.099
		c0.193-0.116,0.356-0.281,0.488-0.498c0.133-0.217,0.241-0.429,0.324-0.64c0.084-0.209,0.147-0.408,0.192-0.601
		c0.044-0.189,0.076-0.396,0.093-0.617s0.015-0.458-0.008-0.708s-0.096-0.469-0.218-0.658c-0.122-0.188-0.287-0.307-0.495-0.356
		c-0.208-0.048-0.408-0.016-0.602,0.099C24.773,64.746,24.611,64.91,24.479,65.123z"/>
	<path fill="#5D5E5E" d="M18.849,68.693l-1.745-0.424l1.629-6.714l2.707,0.657l-0.359,1.478l-0.961-0.232L18.849,68.693z"/>
	<path fill="#5D5E5E" d="M15.802,61.781c0.13,0.41,0.196,0.838,0.2,1.284c0.003,0.445-0.054,0.893-0.171,1.342
		c-0.093,0.354-0.218,0.692-0.375,1.014s-0.351,0.622-0.579,0.896c-0.23,0.274-0.483,0.5-0.76,0.678
		c-0.277,0.176-0.594,0.292-0.953,0.347c-0.358,0.054-0.73,0.031-1.114-0.069c-0.384-0.101-0.719-0.263-1.005-0.486
		c-0.285-0.222-0.505-0.479-0.661-0.77c-0.154-0.289-0.265-0.61-0.33-0.962c-0.066-0.352-0.088-0.706-0.068-1.063
		c0.021-0.357,0.078-0.715,0.171-1.068c0.117-0.449,0.287-0.868,0.508-1.254c0.222-0.387,0.489-0.729,0.802-1.023
		s0.684-0.496,1.111-0.609c0.427-0.111,0.88-0.106,1.359,0.02c0.478,0.125,0.876,0.34,1.194,0.648
		C15.449,61.014,15.673,61.371,15.802,61.781z M12.432,62.155c-0.137,0.209-0.25,0.417-0.337,0.622
		c-0.088,0.203-0.157,0.401-0.207,0.59c-0.049,0.189-0.085,0.396-0.109,0.619c-0.024,0.225-0.028,0.463-0.012,0.718
		c0.016,0.253,0.082,0.475,0.199,0.667c0.117,0.192,0.279,0.315,0.486,0.369c0.207,0.055,0.408,0.027,0.604-0.083
		c0.196-0.11,0.363-0.271,0.501-0.484c0.138-0.213,0.251-0.424,0.34-0.632c0.089-0.206,0.158-0.404,0.208-0.593
		c0.049-0.189,0.084-0.396,0.108-0.616c0.023-0.222,0.027-0.458,0.01-0.708c-0.016-0.25-0.083-0.472-0.201-0.663
		c-0.116-0.192-0.279-0.316-0.486-0.37s-0.408-0.025-0.604,0.084C12.736,61.784,12.569,61.943,12.432,62.155z"/>
	<path fill="#5D5E5E" d="M9.93,60.229c0.119,0.413,0.173,0.842,0.165,1.288c-0.008,0.447-0.078,0.892-0.208,1.336
		c-0.103,0.354-0.237,0.687-0.403,1.006c-0.165,0.316-0.366,0.61-0.604,0.879c-0.237,0.268-0.497,0.486-0.779,0.655
		C7.821,65.562,7.5,65.67,7.14,65.715c-0.359,0.045-0.73,0.011-1.111-0.099c-0.382-0.112-0.712-0.283-0.992-0.514
		c-0.28-0.23-0.492-0.492-0.639-0.786c-0.147-0.295-0.249-0.619-0.304-0.972c-0.056-0.353-0.069-0.709-0.038-1.065
		c0.031-0.357,0.097-0.712,0.199-1.064c0.13-0.445,0.311-0.86,0.542-1.24c0.232-0.381,0.509-0.713,0.83-0.999
		c0.322-0.286,0.697-0.478,1.127-0.58c0.43-0.1,0.883-0.082,1.357,0.057c0.475,0.138,0.868,0.364,1.176,0.681
		C9.598,59.452,9.812,59.816,9.93,60.229z M6.551,60.509c-0.142,0.207-0.261,0.411-0.355,0.612
		c-0.093,0.202-0.168,0.397-0.222,0.585s-0.097,0.393-0.127,0.616c-0.029,0.225-0.04,0.463-0.032,0.718
		c0.009,0.253,0.07,0.478,0.182,0.672s0.271,0.322,0.476,0.381c0.206,0.06,0.407,0.037,0.606-0.067
		c0.199-0.104,0.37-0.26,0.514-0.469c0.144-0.21,0.263-0.418,0.358-0.622c0.094-0.206,0.169-0.401,0.224-0.589
		c0.054-0.188,0.097-0.392,0.125-0.612c0.03-0.22,0.039-0.458,0.03-0.708c-0.01-0.251-0.071-0.473-0.183-0.668
		c-0.112-0.195-0.271-0.322-0.476-0.381c-0.206-0.061-0.408-0.038-0.607,0.065C6.865,60.146,6.694,60.302,6.551,60.509z"/>
</g>
</svg>
